{
  "project_info": {
    "project_number": "642759069438",
    "project_id": "kawanmart-1199d",
    "storage_bucket": "kawanmart-1199d.appspot.com"
  },
  "client": [
    {
      "client_info": {
        "mobilesdk_app_id": "1:642759069438:android:eafb205dfeffcb84339faf",
        "android_client_info": {
          "package_name": "com.soldig.kawanmart"
        }
      },
      "oauth_client": [
        {
          "client_id": "642759069438-5avg3hko8s4o116eanf5np0kdigau94c.apps.googleusercontent.com",
          "client_type": 1,
          "android_info": {
            "package_name": "com.soldig.kawanmart",
            "certificate_hash": "4de77487a400c9320b259c28ccccb7a5cc207934"
          }
        },
        {
          "client_id": "642759069438-mglmsn0elobjcb37s9hn669ima6iph0f.apps.googleusercontent.com",
          "client_type": 3
        }
      ],
      "api_key": [
        {
          "current_key": "AIzaSyBiBPlDnryNmmfOjWp7eWQD4ZuXXCl3gKc"
        }
      ],
      "services": {
        "appinvite_service": {
          "other_platform_oauth_client": [
            {
              "client_id": "642759069438-mglmsn0elobjcb37s9hn669ima6iph0f.apps.googleusercontent.com",
              "client_type": 3
            }
          ]
        }
      }
    }
  ],
  "configuration_version": "1"
}